{
    "AdwTabBar": [
        { "name": "get_start_action_widget", "type": "start", "remover": { "name": "set_start_action_widget", "isSetter": true } },
        { "name": "get_end_action_widget", "type": "end", "remover": { "name": "set_end_action_widget", "isSetter": true } }
    ],
    "GtkAboutDialog": [
        "Block GtkWindow inheritance"
    ],
    "GtkAppChooserDialog": [
        "Block GtkDialog inheritance"
    ],
    "GtkCenterBox": [
        { "name": "get_start_widget", "type": "start", "remover": { "name": "set_start_widget", "isSetter": true } },
        { "name": "get_center_widget", "type": "center", "remover": { "name": "set_center_widget", "isSetter": true } },
        { "name": "get_end_widget", "type": "end", "remover": { "name": "set_end_widget", "isSetter": true } }
    ],
    "GtkColorChooserDialog": [
        "Block GtkDialog inheritance"
    ],
    "GtkColumnView": [
        { "name": "get_columns", "followListModel": true, "remover": { "name": "remove_column" } },
        { "name": "get_model", "ignoreUI": true }
    ],
    "GtkEmojiChooser": [
        "Block GtkPopover inheritance"
    ],
    "GtkFileChooserDialog": [
        "Block GtkDialog inheritance"
    ],
    "GtkFilterListModel": [
         { "name": "get_model", "ignoreUI": true }
    ],
    "GtkFlattenListModel": [
         { "name": "get_model", "ignoreUI": true }
    ],
    "GtkFontChooserDialog": [
        "Block GtkDialog inheritance"
    ],
    "GtkListBase": [
        "GridView and ListView",
        { "name": "get_model", "ignoreUI": true }
    ],
    "GtkLockButton": [
        "Block GtkButton inheritance"
    ],
    "GtkMapListModel": [
         { "name": "get_model", "ignoreUI": true }
    ],
    "GtkMessageDialog": [
        "Block GtkDialog inheritance"
    ],
    "GtkMultiSelection": [
         { "name": "get_model", "ignoreUI": true }
    ],
    "GtkNoSelection": [
         { "name": "get_model", "ignoreUI": true }
    ],
    "GtkPageSetupUnixDialog": [
        "Block GtkDialog inheritance"
    ],
    "GtkPaned": [
        "XXX: Cannot remove children since setter argument may not be null",
        "XXX: No type for child elements",
        { "name": "get_start_child" },
        { "name": "get_end_child" }
    ],
    "GtkPopoverMenu": [
        "Block GtkPopover inheritance"
    ],
    "GtkPrintUnixDialog": [
        "Block GtkDialog inheritance"
    ],
    "GtkSelectionFilterModel": [
         { "name": "get_model", "ignoreUI": true }
    ],
    "GtkShortcutsGroup": [
        { "name": "get_shortcuts", "remover": { "name": "remove_shortcut" } }
    ],
    "GtkShortcutsSection": [
        { "name": "get_groups", "remover": { "name": "remove_group" } }
    ],
    "GtkShortcutsWindow": [
         { "name": "get_sections", "remover": { "name": "remove_section" } }
    ],
    "GtkSingleSelection": [
         { "name": "get_model", "ignoreUI": true }
    ],
    "GtkSliceListModel": [
         { "name": "get_model", "ignoreUI": true }
    ],
    "GtkSortListModel": [
         { "name": "get_model", "ignoreUI": true }
    ],
    "GtkTextBuffer": [
        { "name": "get_tag_table", "ignoreUI": true }
    ],
    "GtkTextView": [
        { "name": "get_buffer", "ignoreUI": true }
    ],
    "GtkTreeView": [
        { "name": "get_columns", "remover": { "name": "remove_column" } },
        { "name": "get_model", "ignoreUI": true }
    ],
    "GtkTreeViewColumn": [
        { "name": "get_cells" }
    ],
    "GtkWindow": [
        "No remover for the titlebar (crash)",
        { "name": "get_titlebar", "type": "titlebar" },
        { "name": "get_child", "remover": { "name": "set_child", "isSetter": true } }
    ]
}
